{
	"info": {
		"_postman_id": "03afeec2-9259-47d2-8c87-eb2d927e4283",
		"name": "payment-ms",
		"description": "tests of payment microservice",
		"schema": "https://schema.getpostman.com/json/collection/v2.1.0/collection.json"
	},
	"item": [
		{
			"name": "POST /payments",
			"event": [
				{
					"listen": "test",
					"script": {
						"id": "c1316f14-0260-4bd3-b71b-107d56305746",
						"exec": [
							"pm.test(\"Status code is 200\", function () {",
							"    pm.response.to.have.status(200);",
							"});"
						],
						"type": "text/javascript"
					}
				}
			],
			"request": {
				"method": "POST",
				"header": [
					{
						"key": "Content-Type",
						"name": "Content-Type",
						"value": "application/json",
						"type": "text"
					}
				],
				"body": {
					"mode": "raw",
					"raw": "{\n    \"payment\": {\n        \"card\": {\n            \"cardNum\": \"4111111111111111\",\n            \"cardExpiry\": {\n                \"month\": 2,\n                \"year\": 2019\n            }\n        },\n        \"billingDetails\": {\n            \"street\": \"100 Queen Street West\",\n            \"city\": \"Toronto\",\n            \"state\": \"ON\",\n            \"country\": \"CA\",\n            \"zip\": \"M5H 2N2\"\n        }\n    },\n    \"orders\": [\n        {\n            \"id\": 1\n        },\n        {\n            \"id\": 2\n        }\n    ]\n}"
				},
				"url": {
					"raw": "{{host}}:{{port}}/{{context-path}}/payments",
					"host": [
						"{{host}}"
					],
					"port": "{{port}}",
					"path": [
						"{{context-path}}",
						"payments"
					]
				},
				"description": "pay an order"
			},
			"response": []
		},
		{
			"name": "paysafe test minimal",
			"request": {
				"auth": {
					"type": "basic",
					"basic": [
						{
							"key": "username",
							"value": "test_chococrok",
							"type": "string"
						},
						{
							"key": "password",
							"value": "B-qa2-0-5c6d72f5-0-302c02146dc3706c30d03f2ab3c6be561b999fc8d957ac310214553c3216b3fb77b17ecd6e2b1964fa7fb2b765c6",
							"type": "string"
						}
					]
				},
				"method": "POST",
				"header": [
					{
						"key": "Content-Type",
						"name": "Content-Type",
						"value": "application/json",
						"type": "text"
					}
				],
				"body": {
					"mode": "raw",
					"raw": "{\n  \"merchantRefNum\": \"toto\",\n  \"amount\": 1000,\n  \"settleWithAuth\": true,\n  \"card\": {\n    \"cardNum\": \"4111111111111111\",\n    \"cardExpiry\": {\n      \"month\": 2,\n      \"year\": 2019\n    }\n  },\n  \"billingDetails\": {\n    \"street\": \"100 Queen Street West\",\n    \"city\": \"Toronto\",\n    \"state\": \"ON\",\n    \"country\": \"CA\",\n    \"zip\": \"M5H 2N2\"\n  }\n}"
				},
				"url": {
					"raw": "https://api.test.paysafe.com/cardpayments/v1/accounts/1001337290/auths",
					"protocol": "https",
					"host": [
						"api",
						"test",
						"paysafe",
						"com"
					],
					"path": [
						"cardpayments",
						"v1",
						"accounts",
						"1001337290",
						"auths"
					]
				}
			},
			"response": []
		}
	]
}